MPEG 1 layer 3, 128000 bps (CBR), 44100 Hz, 2 chn, 186.54 seconds (audio/mp3)
APIC=cover front, Cover (image/jpeg, 49501 bytes)
TCON=Techno
TDRC=2019-04-01 20
TIT2=Breach
TPE1=ZANICK
TSSE=Lavf58.45.100
WOAR=https://soundcloud.com/zan1ck/breach