Ogg Vorbis, 213.04 seconds, 160000 bps (audio/vorbis)
encoder=Lavc57.64.101 libvorbis
encoded_by=Logic Pro X
date=2017-03-12
coding_history=
time_reference=158760000
umid=0x00000000000000000000000000000000000000000000000000000000EA0061A92D2179FD3016D75DFF7F0000400E450301000000100FD75DFF7F00000C7FB5A9